G04 EAGLE Gerber RS-274X export*
G75*
%MOMM*%
%FSLAX34Y34*%
%LPD*%
%INTop Copper*%
%IPPOS*%
%AMOC8*
5,1,8,0,0,1.08239X$1,22.5*%
G01*
%ADD10P,1.429621X8X22.500000*%
%ADD11C,1.930400*%
%ADD12R,2.540000X2.540000*%
%ADD13C,1.270000*%


D10*
X88900Y38100D03*
X190500Y38100D03*
D11*
X165100Y88900D03*
X139700Y88900D03*
X114300Y88900D03*
D12*
X38100Y88900D03*
X38100Y38100D03*
D13*
X165100Y88900D02*
X177800Y88900D01*
X190500Y76200D01*
X190500Y38100D01*
X88900Y38100D02*
X38100Y38100D01*
X88900Y38100D02*
X114300Y38100D01*
X139700Y63500D01*
X139700Y88900D01*
X114300Y88900D02*
X38100Y88900D01*
M02*
